Confidence Intervals – STAT326 Blog
…
\(np \gt 10 \rightarrow (10)(0.44) \gt 10 \rightarrow 4.4 \not\gt 10\)

\(n(1-p) \gt \rightarrow (50)(0.56) \gt 10 \rightarrow 5.6 \not\gt 10\)

In this case, the large sample assumption does not hold.

nsim <- 5000  # the number of simulated CIs to create

many_ci_df <- map(1:nsim,
                  \(i) generate_onesamp_cis(n = n, p = p,
                                            alpha = alpha)) |>
  bind_rows()
many_ci_df

# A tibble: 5,000 × 3
    phat     lb    ub
   <dbl>  <dbl> <dbl>
 1   0.5 0.240  0.760
 2   0.6 0.345  0.855
 3   0.5 0.240  0.760
 4   0.4 0.145  0.655
 5   0.5 0.240  0.760
 6   0.3 0.0616 0.538
 7   0.6 0.345  0.855
 8   0.3 0.0616 0.538
 9   0.4 0.145  0.655
10   0.5 0.240  0.760
# ℹ 4,990 more rows

many_ci_df <- many_ci_df |> mutate(ci_width = ub - lb,
                                   ci_cover_ind = if_else(p > lb & p < ub,
                                                          true = 1, 
                                                          false = 0))
many_ci_df

# A tibble: 5,000 × 5
    phat     lb    ub ci_width ci_cover_ind
   <dbl>  <dbl> <dbl>    <dbl>        <dbl>
 1   0.5 0.240  0.760    0.520            1
 2   0.6 0.345  0.855    0.510            1
 3   0.5 0.240  0.760    0.520            1
 4   0.4 0.145  0.655    0.510            1
 5   0.5 0.240  0.760    0.520            1
 6   0.3 0.0616 0.538    0.477            1
 7   0.6 0.345  0.855    0.510            1
 8   0.3 0.0616 0.538    0.477            1
 9   0.4 0.145  0.655    0.510            1
10   0.5 0.240  0.760    0.520            1
# ℹ 4,990 more rows
…
